<?xml version="1.0" encoding="UTF-8" standalone="no"?>
<svg
   xmlns:dc="http://purl.org/dc/elements/1.1/"
   xmlns:cc="http://creativecommons.org/ns#"
   xmlns:rdf="http://www.w3.org/1999/02/22-rdf-syntax-ns#"
   xmlns:svg="http://www.w3.org/2000/svg"
   xmlns="http://www.w3.org/2000/svg"
   xmlns:xlink="http://www.w3.org/1999/xlink"
   xmlns:sodipodi="http://sodipodi.sourceforge.net/DTD/sodipodi-0.dtd"
   xmlns:inkscape="http://www.inkscape.org/namespaces/inkscape"
   version="1.1"
   viewBox="0 0 600 600"
   height="600pt"
   width="600pt"
   id="svg15"
   sodipodi:docname="pkg.svg"
   inkscape:version="0.92.4 (5da689c313, 2019-01-14)">
  <metadata
     id="metadata19">
    <rdf:RDF>
      <cc:Work
         rdf:about="">
        <dc:format>image/svg+xml</dc:format>
        <dc:type
           rdf:resource="http://purl.org/dc/dcmitype/StillImage" />
        <dc:title></dc:title>
      </cc:Work>
    </rdf:RDF>
  </metadata>
  <sodipodi:namedview
     pagecolor="#ffffff"
     bordercolor="#666666"
     borderopacity="1"
     objecttolerance="10"
     gridtolerance="10"
     guidetolerance="10"
     inkscape:pageopacity="0"
     inkscape:pageshadow="2"
     inkscape:window-width="1360"
     inkscape:window-height="745"
     id="namedview17"
     showgrid="false"
     inkscape:zoom="0.23951286"
     inkscape:cx="400"
     inkscape:cy="492.66667"
     inkscape:window-x="-8"
     inkscape:window-y="-8"
     inkscape:window-maximized="1"
     inkscape:current-layer="svg15" />
  <defs
     id="defs3">
    <!-- <font-face font-family="Eurostile Bold">
			<font-face-src>
				<font-face-name name="Eurostile Bold"/>
				<font-face-uri xlink:href="http://xfont.ru/fonts/3/5/1/3517.ttf">
					<font-face-format string="truetype"/>
				</font-face-uri>
			</font-face-src>
		</font-face>
		<style type="text/css">
			<![CDATA[
				@font-face {
					font-family: 'Eurostile Bold',
					src: src: local('Eurostile Bold'),
					url('http://xfont.ru/fonts/3/5/1/3517.ttf');
				}
			]]>
		</style> -->
    <path
       d="m -69.65039,120.63802 a 139.30078,139.30078 120 1 1 139.30078,0 L 27.708984,47.993369 a 55.417969,55.417969 120 1 0 -55.417968,0 z"
       id="cv_element"
       inkscape:connector-curvature="0" />
  </defs>
  <!-- paths -->
  <use
     xlink:href="#cv_element"
     x="298"
     y="140"
     id="red"
     style="fill:#ff0101"
     width="100%"
     height="100%"
     transform="translate(6.2627119,17.567797)" />
  <use
     xlink:href="#cv_element"
     x="457"
     y="415"
     id="blue"
     transform="rotate(180,460.13136,423.7839)"
     style="fill:#0101ff"
     width="100%"
     height="100%" />
  <use
     xlink:href="#cv_element"
     x="142"
     y="415"
     id="green"
     transform="rotate(-120,150.20275,421.97601)"
     style="fill:#01ff01"
     width="100%"
     height="100%" />
  <!--- text -->
  <g
     id="opencv_text"
     style="fill-rule:evenodd"
     transform="translate(0,-139)" />
  <!-- <text style="font-family: 'Eurostile Bold';" font-family="Eurostile Bold" font-size="170" y="95%" x="0">OpenCV</text> -->
</svg>
